%YAML 1.1
%TAG !u! tag:unity3d.com,2011:
--- !u!29 &1
OcclusionCullingSettings:
  m_ObjectHideFlags: 0
  serializedVersion: 2
  m_OcclusionBakeSettings:
    smallestOccluder: 5
    smallestHole: 0.25
    backfaceThreshold: 100
  m_SceneGUID: 00000000000000000000000000000000
  m_OcclusionCullingData: {fileID: 0}
--- !u!104 &2
RenderSettings:
  m_ObjectHideFlags: 0
  serializedVersion: 9
  m_Fog: 0
  m_FogColor: {r: 0.5, g: 0.5, b: 0.5, a: 1}
  m_FogMode: 3
  m_FogDensity: 0.01
  m_LinearFogStart: 0
  m_LinearFogEnd: 300
  m_AmbientSkyColor: {r: 0.212, g: 0.227, b: 0.259, a: 1}
  m_AmbientEquatorColor: {r: 0.114, g: 0.125, b: 0.133, a: 1}
  m_AmbientGroundColor: {r: 0.047, g: 0.043, b: 0.035, a: 1}
  m_AmbientIntensity: 1
  m_AmbientMode: 0
  m_SubtractiveShadowColor: {r: 0.42, g: 0.478, b: 0.627, a: 1}
  m_SkyboxMaterial: {fileID: 10304, guid: 0000000000000000f000000000000000, type: 0}
  m_HaloStrength: 0.5
  m_FlareStrength: 1
  m_FlareFadeSpeed: 3
  m_HaloTexture: {fileID: 0}
  m_SpotCookie: {fileID: 10001, guid: 0000000000000000e000000000000000, type: 0}
  m_DefaultReflectionMode: 0
  m_DefaultReflectionResolution: 128
  m_ReflectionBounces: 1
  m_ReflectionIntensity: 1
  m_CustomReflection: {fileID: 0}
  m_Sun: {fileID: 0}
  m_IndirectSpecularColor: {r: 0, g: 0, b: 0, a: 1}
  m_UseRadianceAmbientProbe: 0
--- !u!157 &3
LightmapSettings:
  m_ObjectHideFlags: 0
  serializedVersion: 11
  m_GIWorkflowMode: 1
  m_GISettings:
    serializedVersion: 2
    m_BounceScale: 1
    m_IndirectOutputScale: 1
    m_AlbedoBoost: 1
    m_TemporalCoherenceThreshold: 1
    m_EnvironmentLightingMode: 0
    m_EnableBakedLightmaps: 1
    m_EnableRealtimeLightmaps: 1
  m_LightmapEditorSettings:
    serializedVersion: 10
    m_Resolution: 2
    m_BakeResolution: 40
    m_AtlasSize: 1024
    m_AO: 0
    m_AOMaxDistance: 1
    m_CompAOExponent: 1
    m_CompAOExponentDirect: 0
    m_Padding: 2
    m_LightmapParameters: {fileID: 0}
    m_LightmapsBakeMode: 1
    m_TextureCompression: 1
    m_FinalGather: 0
    m_FinalGatherFiltering: 1
    m_FinalGatherRayCount: 256
    m_ReflectionCompression: 2
    m_MixedBakeMode: 1
    m_BakeBackend: 0
    m_PVRSampling: 1
    m_PVRDirectSampleCount: 32
    m_PVRSampleCount: 500
    m_PVRBounces: 2
    m_PVRFilterTypeDirect: 0
    m_PVRFilterTypeIndirect: 0
    m_PVRFilterTypeAO: 0
    m_PVRFilteringMode: 0
    m_PVRCulling: 1
    m_PVRFilteringGaussRadiusDirect: 1
    m_PVRFilteringGaussRadiusIndirect: 5
    m_PVRFilteringGaussRadiusAO: 2
    m_PVRFilteringAtrousPositionSigmaDirect: 0.5
    m_PVRFilteringAtrousPositionSigmaIndirect: 2
    m_PVRFilteringAtrousPositionSigmaAO: 1
    m_ShowResolutionOverlay: 1
  m_LightingDataAsset: {fileID: 0}
  m_UseShadowmask: 0
--- !u!196 &4
NavMeshSettings:
  serializedVersion: 2
  m_ObjectHideFlags: 0
  m_BuildSettings:
    serializedVersion: 2
    agentTypeID: 0
    agentRadius: 0.5
    agentHeight: 2
    agentSlope: 45
    agentClimb: 0.4
    ledgeDropHeight: 0
    maxJumpAcrossDistance: 0
    minRegionArea: 2
    manualCellSize: 0
    cellSize: 0.16666667
    manualTileSize: 0
    tileSize: 256
    accuratePlacement: 0
    debug:
      m_Flags: 0
  m_NavMeshData: {fileID: 0}
--- !u!1 &1447539
GameObject:
  m_ObjectHideFlags: 0
  m_CorrespondingSourceObject: {fileID: 1000010217996296, guid: 8c231c91aa4b77a4489a9a7277cdf4de,
    type: 2}
  m_PrefabInternal: {fileID: 1619530806}
  serializedVersion: 6
  m_Component:
  - component: {fileID: 1447541}
  - component: {fileID: 1447540}
  m_Layer: 0
  m_Name: Bow
  m_TagString: Untagged
  m_Icon: {fileID: 0}
  m_NavMeshLayer: 0
  m_StaticEditorFlags: 0
  m_IsActive: 1
--- !u!95 &1447540
Animator:
  serializedVersion: 3
  m_ObjectHideFlags: 0
  m_CorrespondingSourceObject: {fileID: 95000011071977682, guid: 8c231c91aa4b77a4489a9a7277cdf4de,
    type: 2}
  m_PrefabInternal: {fileID: 1619530806}
  m_GameObject: {fileID: 1447539}
  m_Enabled: 1
  m_Avatar: {fileID: 9000000, guid: c73cecdecc95c24419cf03fa0f93abc6, type: 3}
  m_Controller: {fileID: 0}
  m_CullingMode: 1
  m_UpdateMode: 0
  m_ApplyRootMotion: 1
  m_LinearVelocityBlending: 0
  m_WarningMessage: 
  m_HasTransformHierarchy: 1
  m_AllowConstantClipSamplingOptimization: 1
  m_KeepAnimatorControllerStateOnDisable: 0
--- !u!4 &1447541
Transform:
  m_ObjectHideFlags: 0
  m_CorrespondingSourceObject: {fileID: 4000014092360882, guid: 8c231c91aa4b77a4489a9a7277cdf4de,
    type: 2}
  m_PrefabInternal: {fileID: 1619530806}
  m_GameObject: {fileID: 1447539}
  m_LocalRotation: {x: 0.5, y: 0.5, z: 0.5, w: 0.5}
  m_LocalPosition: {x: 0, y: 0, z: 0}
  m_LocalScale: {x: 1, y: 1, z: 1}
  m_Children:
  - {fileID: 392041750}
  - {fileID: 659237378}
  m_Father: {fileID: 0}
  m_RootOrder: 1
  m_LocalEulerAnglesHint: {x: 0, y: 90, z: 90}
--- !u!1 &3010592
GameObject:
  m_ObjectHideFlags: 0
  m_CorrespondingSourceObject: {fileID: 1000010188342244, guid: 8c231c91aa4b77a4489a9a7277cdf4de,
    type: 2}
  m_PrefabInternal: {fileID: 1619530806}
  serializedVersion: 6
  m_Component:
  - component: {fileID: 3010593}
  m_Layer: 0
  m_Name: Root
  m_TagString: Untagged
  m_Icon: {fileID: 0}
  m_NavMeshLayer: 0
  m_StaticEditorFlags: 0
  m_IsActive: 1
--- !u!4 &3010593
Transform:
  m_ObjectHideFlags: 0
  m_CorrespondingSourceObject: {fileID: 4000010649017086, guid: 8c231c91aa4b77a4489a9a7277cdf4de,
    type: 2}
  m_PrefabInternal: {fileID: 1619530806}
  m_GameObject: {fileID: 3010592}
  m_LocalRotation: {x: 1, y: -2.8999958e-15, z: -0.00000011920928, w: 0.0000000754979}
  m_LocalPosition: {x: -0, y: 0, z: 0}
  m_LocalScale: {x: 1, y: 0.99999994, z: 1}
  m_Children:
  - {fileID: 1684180592}
  m_Father: {fileID: 659237378}
  m_RootOrder: 0
  m_LocalEulerAnglesHint: {x: 0, y: 0, z: 0}
--- !u!1 &265315005
GameObject:
  m_ObjectHideFlags: 0
  m_CorrespondingSourceObject: {fileID: 1000013479796182, guid: 8c231c91aa4b77a4489a9a7277cdf4de,
    type: 2}
  m_PrefabInternal: {fileID: 1619530806}
  serializedVersion: 6
  m_Component:
  - component: {fileID: 1684180592}
  - component: {fileID: 265315006}
  m_Layer: 0
  m_Name: String
  m_TagString: Untagged
  m_Icon: {fileID: 0}
  m_NavMeshLayer: 0
  m_StaticEditorFlags: 0
  m_IsActive: 1
--- !u!114 &265315006
MonoBehaviour:
  m_ObjectHideFlags: 0
  m_CorrespondingSourceObject: {fileID: 114000013260415400, guid: 8c231c91aa4b77a4489a9a7277cdf4de,
    type: 2}
  m_PrefabInternal: {fileID: 1619530806}
  m_GameObject: {fileID: 265315005}
  m_Enabled: 1
  m_EditorHideFlags: 0
  m_Script: {fileID: 11500000, guid: bb92166548c16c34f91db2d294995e52, type: 3}
  m_Name: 
  m_EditorClassIdentifier: 
  factor: 0
  stretching: 1
  releasing: 0
  stretchSpeed: 0.5
  releaseSpeed: 5
--- !u!1 &280054635
GameObject:
  m_ObjectHideFlags: 0
  m_CorrespondingSourceObject: {fileID: 0}
  m_PrefabInternal: {fileID: 0}
  serializedVersion: 6
  m_Component:
  - component: {fileID: 280054637}
  - component: {fileID: 280054636}
  m_Layer: 0
  m_Name: Directional Light
  m_TagString: Untagged
  m_Icon: {fileID: 0}
  m_NavMeshLayer: 0
  m_StaticEditorFlags: 0
  m_IsActive: 1
--- !u!108 &280054636
Light:
  m_ObjectHideFlags: 0
  m_CorrespondingSourceObject: {fileID: 0}
  m_PrefabInternal: {fileID: 0}
  m_GameObject: {fileID: 280054635}
  m_Enabled: 1
  serializedVersion: 8
  m_Type: 1
  m_Color: {r: 1, g: 0.95686275, b: 0.8392157, a: 1}
  m_Intensity: 1
  m_Range: 10
  m_SpotAngle: 30
  m_CookieSize: 10
  m_Shadows:
    m_Type: 2
    m_Resolution: -1
    m_CustomResolution: -1
    m_Strength: 1
    m_Bias: 0.05
    m_NormalBias: 0.4
    m_NearPlane: 0.2
  m_Cookie: {fileID: 0}
  m_DrawHalo: 0
  m_Flare: {fileID: 0}
  m_RenderMode: 0
  m_CullingMask:
    serializedVersion: 2
    m_Bits: 4294967295
  m_Lightmapping: 4
  m_LightShadowCasterMode: 0
  m_AreaSize: {x: 1, y: 1}
  m_BounceIntensity: 1
  m_ColorTemperature: 6570
  m_UseColorTemperature: 0
  m_ShadowRadius: 0
  m_ShadowAngle: 0
--- !u!4 &280054637
Transform:
  m_ObjectHideFlags: 0
  m_CorrespondingSourceObject: {fileID: 0}
  m_PrefabInternal: {fileID: 0}
  m_GameObject: {fileID: 280054635}
  m_LocalRotation: {x: 0.40821788, y: -0.23456968, z: 0.10938163, w: 0.8754261}
  m_LocalPosition: {x: 0, y: 3, z: 0}
  m_LocalScale: {x: 1, y: 1, z: 1}
  m_Children: []
  m_Father: {fileID: 0}
  m_RootOrder: 2
  m_LocalEulerAnglesHint: {x: 50, y: -30, z: 0}
--- !u!1 &392041749
GameObject:
  m_ObjectHideFlags: 0
  m_CorrespondingSourceObject: {fileID: 1000010130415754, guid: 8c231c91aa4b77a4489a9a7277cdf4de,
    type: 2}
  m_PrefabInternal: {fileID: 1619530806}
  serializedVersion: 6
  m_Component:
  - component: {fileID: 392041750}
  - component: {fileID: 392041751}
  m_Layer: 0
  m_Name: Bow
  m_TagString: Untagged
  m_Icon: {fileID: 0}
  m_NavMeshLayer: 0
  m_StaticEditorFlags: 0
  m_IsActive: 1
--- !u!4 &392041750
Transform:
  m_ObjectHideFlags: 0
  m_CorrespondingSourceObject: {fileID: 4000010925235294, guid: 8c231c91aa4b77a4489a9a7277cdf4de,
    type: 2}
  m_PrefabInternal: {fileID: 1619530806}
  m_GameObject: {fileID: 392041749}
  m_LocalRotation: {x: 0, y: -0, z: -0, w: 1}
  m_LocalPosition: {x: -0, y: 0, z: 0}
  m_LocalScale: {x: 1, y: 1, z: 1}
  m_Children: []
  m_Father: {fileID: 1447541}
  m_RootOrder: 0
  m_LocalEulerAnglesHint: {x: 0, y: 0, z: 0}
--- !u!137 &392041751
SkinnedMeshRenderer:
  m_ObjectHideFlags: 0
  m_CorrespondingSourceObject: {fileID: 137000012730928956, guid: 8c231c91aa4b77a4489a9a7277cdf4de,
    type: 2}
  m_PrefabInternal: {fileID: 1619530806}
  m_GameObject: {fileID: 392041749}
  m_Enabled: 1
  m_CastShadows: 1
  m_ReceiveShadows: 1
  m_DynamicOccludee: 1
  m_MotionVectors: 1
  m_LightProbeUsage: 1
  m_ReflectionProbeUsage: 1
  m_RenderingLayerMask: 4294967295
  m_Materials:
  - {fileID: 2100000, guid: b895fb14874df954f940101061580f28, type: 2}
  - {fileID: 2100000, guid: 7ff9e628910e7ad4ba8e3e75bda23032, type: 2}
  m_StaticBatchInfo:
    firstSubMesh: 0
    subMeshCount: 0
  m_StaticBatchRoot: {fileID: 0}
  m_ProbeAnchor: {fileID: 0}
  m_LightProbeVolumeOverride: {fileID: 0}
  m_ScaleInLightmap: 1
  m_PreserveUVs: 0
  m_IgnoreNormalsForChartDetection: 0
  m_ImportantGI: 0
  m_StitchLightmapSeams: 0
  m_SelectedEditorRenderState: 3
  m_MinimumChartSize: 4
  m_AutoUVMaxDistance: 0.5
  m_AutoUVMaxAngle: 89
  m_LightmapParameters: {fileID: 0}
  m_SortingLayerID: 0
  m_SortingLayer: 0
  m_SortingOrder: 0
  serializedVersion: 2
  m_Quality: 0
  m_UpdateWhenOffscreen: 0
  m_SkinnedMotionVectors: 1
  m_Mesh: {fileID: 4300000, guid: c73cecdecc95c24419cf03fa0f93abc6, type: 3}
  m_Bones:
  - {fileID: 3010593}
  - {fileID: 1684180592}
  m_BlendShapeWeights: []
  m_RootBone: {fileID: 3010593}
  m_AABB:
    m_Center: {x: 0, y: 0.17116685, z: 0.0000044442713}
    m_Extent: {x: 0.6457314, y: 0.20148052, z: 0.037153065}
  m_DirtyAABB: 0
--- !u!1 &567419135
GameObject:
  m_ObjectHideFlags: 0
  m_CorrespondingSourceObject: {fileID: 1000012925669750, guid: 04d464c74059d654db935e748cab1c29,
    type: 2}
  m_PrefabInternal: {fileID: 1888058468}
  serializedVersion: 6
  m_Component:
  - component: {fileID: 567419136}
  - component: {fileID: 567419138}
  - component: {fileID: 567419137}
  - component: {fileID: 567419139}
  m_Layer: 0
  m_Name: Arrow
  m_TagString: Untagged
  m_Icon: {fileID: 0}
  m_NavMeshLayer: 0
  m_StaticEditorFlags: 0
  m_IsActive: 1
--- !u!4 &567419136
Transform:
  m_ObjectHideFlags: 0
  m_CorrespondingSourceObject: {fileID: 4000010426880202, guid: 04d464c74059d654db935e748cab1c29,
    type: 2}
  m_PrefabInternal: {fileID: 1888058468}
  m_GameObject: {fileID: 567419135}
  m_LocalRotation: {x: -0.000000030908613, y: -0.7071068, z: -0.7071067, w: 0.000000030908605}
  m_LocalPosition: {x: 0, y: -0.5371568, z: -0.028000027}
  m_LocalScale: {x: 1.15, y: 1.1499995, z: 1.1499993}
  m_Children: []
  m_Father: {fileID: 1684180592}
  m_RootOrder: 0
  m_LocalEulerAnglesHint: {x: 0, y: 0, z: 0}
--- !u!23 &567419137
MeshRenderer:
  m_ObjectHideFlags: 0
  m_CorrespondingSourceObject: {fileID: 23000010032684646, guid: 04d464c74059d654db935e748cab1c29,
    type: 2}
  m_PrefabInternal: {fileID: 1888058468}
  m_GameObject: {fileID: 567419135}
  m_Enabled: 1
  m_CastShadows: 1
  m_ReceiveShadows: 1
  m_DynamicOccludee: 1
  m_MotionVectors: 1
  m_LightProbeUsage: 1
  m_ReflectionProbeUsage: 1
  m_RenderingLayerMask: 4294967295
  m_Materials:
  - {fileID: 2100000, guid: 337481b89b5ec8641b5cba62aa1852c2, type: 2}
  - {fileID: 2100000, guid: 679103a23917ce44bafd5448744326a5, type: 2}
  - {fileID: 2100000, guid: 7af34689e8f0f874cb73221a8404c9f7, type: 2}
  m_StaticBatchInfo:
    firstSubMesh: 0
    subMeshCount: 0
  m_StaticBatchRoot: {fileID: 0}
  m_ProbeAnchor: {fileID: 0}
  m_LightProbeVolumeOverride: {fileID: 0}
  m_ScaleInLightmap: 1
  m_PreserveUVs: 0
  m_IgnoreNormalsForChartDetection: 0
  m_ImportantGI: 0
  m_StitchLightmapSeams: 0
  m_SelectedEditorRenderState: 3
  m_MinimumChartSize: 4
  m_AutoUVMaxDistance: 0.5
  m_AutoUVMaxAngle: 89
  m_LightmapParameters: {fileID: 0}
  m_SortingLayerID: 0
  m_SortingLayer: 0
  m_SortingOrder: 0
--- !u!33 &567419138
MeshFilter:
  m_ObjectHideFlags: 0
  m_CorrespondingSourceObject: {fileID: 33000010730523394, guid: 04d464c74059d654db935e748cab1c29,
    type: 2}
  m_PrefabInternal: {fileID: 1888058468}
  m_GameObject: {fileID: 567419135}
  m_Mesh: {fileID: 4300000, guid: 4be25db1885be9e42bbf88326cec8118, type: 3}
--- !u!114 &567419139
MonoBehaviour:
  m_ObjectHideFlags: 0
  m_CorrespondingSourceObject: {fileID: 0}
  m_PrefabInternal: {fileID: 0}
  m_GameObject: {fileID: 567419135}
  m_Enabled: 1
  m_EditorHideFlags: 0
  m_Script: {fileID: 11500000, guid: bb92166548c16c34f91db2d294995e52, type: 3}
  m_Name: 
  m_EditorClassIdentifier: 
  factor: 0
  stretching: 0
  releasing: 0
  stretchSpeed: 0.5
  releaseSpeed: 0.5
--- !u!1 &659237377
GameObject:
  m_ObjectHideFlags: 0
  m_CorrespondingSourceObject: {fileID: 1000012371726614, guid: 8c231c91aa4b77a4489a9a7277cdf4de,
    type: 2}
  m_PrefabInternal: {fileID: 1619530806}
  serializedVersion: 6
  m_Component:
  - component: {fileID: 659237378}
  m_Layer: 0
  m_Name: BowRig
  m_TagString: Untagged
  m_Icon: {fileID: 0}
  m_NavMeshLayer: 0
  m_StaticEditorFlags: 0
  m_IsActive: 1
--- !u!4 &659237378
Transform:
  m_ObjectHideFlags: 0
  m_CorrespondingSourceObject: {fileID: 4000011158332922, guid: 8c231c91aa4b77a4489a9a7277cdf4de,
    type: 2}
  m_PrefabInternal: {fileID: 1619530806}
  m_GameObject: {fileID: 659237377}
  m_LocalRotation: {x: -0.7071068, y: 0, z: -0, w: 0.7071067}
  m_LocalPosition: {x: -0, y: 0, z: 0}
  m_LocalScale: {x: 1, y: 1, z: 1}
  m_Children:
  - {fileID: 3010593}
  m_Father: {fileID: 1447541}
  m_RootOrder: 1
  m_LocalEulerAnglesHint: {x: 0, y: 0, z: 0}
--- !u!1001 &1619530806
Prefab:
  m_ObjectHideFlags: 0
  serializedVersion: 2
  m_Modification:
    m_TransformParent: {fileID: 0}
    m_Modifications:
    - target: {fileID: 4000014092360882, guid: 8c231c91aa4b77a4489a9a7277cdf4de, type: 2}
      propertyPath: m_LocalPosition.x
      value: 0
      objectReference: {fileID: 0}
    - target: {fileID: 4000014092360882, guid: 8c231c91aa4b77a4489a9a7277cdf4de, type: 2}
      propertyPath: m_LocalPosition.y
      value: 0
      objectReference: {fileID: 0}
    - target: {fileID: 4000014092360882, guid: 8c231c91aa4b77a4489a9a7277cdf4de, type: 2}
      propertyPath: m_LocalPosition.z
      value: 0
      objectReference: {fileID: 0}
    - target: {fileID: 4000014092360882, guid: 8c231c91aa4b77a4489a9a7277cdf4de, type: 2}
      propertyPath: m_LocalRotation.x
      value: 0.5
      objectReference: {fileID: 0}
    - target: {fileID: 4000014092360882, guid: 8c231c91aa4b77a4489a9a7277cdf4de, type: 2}
      propertyPath: m_LocalRotation.y
      value: 0.5
      objectReference: {fileID: 0}
    - target: {fileID: 4000014092360882, guid: 8c231c91aa4b77a4489a9a7277cdf4de, type: 2}
      propertyPath: m_LocalRotation.z
      value: 0.5
      objectReference: {fileID: 0}
    - target: {fileID: 4000014092360882, guid: 8c231c91aa4b77a4489a9a7277cdf4de, type: 2}
      propertyPath: m_LocalRotation.w
      value: 0.5
      objectReference: {fileID: 0}
    - target: {fileID: 4000014092360882, guid: 8c231c91aa4b77a4489a9a7277cdf4de, type: 2}
      propertyPath: m_RootOrder
      value: 1
      objectReference: {fileID: 0}
    - target: {fileID: 114000013260415400, guid: 8c231c91aa4b77a4489a9a7277cdf4de,
        type: 2}
      propertyPath: releaseSpeed
      value: 5
      objectReference: {fileID: 0}
    - target: {fileID: 114000013260415400, guid: 8c231c91aa4b77a4489a9a7277cdf4de,
        type: 2}
      propertyPath: stretching
      value: 1
      objectReference: {fileID: 0}
    m_RemovedComponents: []
  m_SourcePrefab: {fileID: 100100000, guid: 8c231c91aa4b77a4489a9a7277cdf4de, type: 2}
  m_RootGameObject: {fileID: 1447539}
  m_IsPrefabAsset: 0
--- !u!4 &1684180592
Transform:
  m_ObjectHideFlags: 0
  m_CorrespondingSourceObject: {fileID: 4000012999159576, guid: 8c231c91aa4b77a4489a9a7277cdf4de,
    type: 2}
  m_PrefabInternal: {fileID: 1619530806}
  m_GameObject: {fileID: 265315005}
  m_LocalRotation: {x: 8.048361e-15, y: 1, z: 0.000000049912398, w: -0.0000000754979}
  m_LocalPosition: {x: 3.5672466e-15, y: 0.2991568, z: 0.000000014962119}
  m_LocalScale: {x: 1, y: 1, z: 1}
  m_Children:
  - {fileID: 567419136}
  m_Father: {fileID: 3010593}
  m_RootOrder: 0
  m_LocalEulerAnglesHint: {x: 0, y: 0, z: 0}
--- !u!1001 &1888058468
Prefab:
  m_ObjectHideFlags: 0
  serializedVersion: 2
  m_Modification:
    m_TransformParent: {fileID: 1684180592}
    m_Modifications:
    - target: {fileID: 4000010426880202, guid: 04d464c74059d654db935e748cab1c29, type: 2}
      propertyPath: m_LocalPosition.x
      value: 0
      objectReference: {fileID: 0}
    - target: {fileID: 4000010426880202, guid: 04d464c74059d654db935e748cab1c29, type: 2}
      propertyPath: m_LocalPosition.y
      value: -0.5371568
      objectReference: {fileID: 0}
    - target: {fileID: 4000010426880202, guid: 04d464c74059d654db935e748cab1c29, type: 2}
      propertyPath: m_LocalPosition.z
      value: -0.028000027
      objectReference: {fileID: 0}
    - target: {fileID: 4000010426880202, guid: 04d464c74059d654db935e748cab1c29, type: 2}
      propertyPath: m_LocalRotation.x
      value: -0.000000030908613
      objectReference: {fileID: 0}
    - target: {fileID: 4000010426880202, guid: 04d464c74059d654db935e748cab1c29, type: 2}
      propertyPath: m_LocalRotation.y
      value: -0.7071068
      objectReference: {fileID: 0}
    - target: {fileID: 4000010426880202, guid: 04d464c74059d654db935e748cab1c29, type: 2}
      propertyPath: m_LocalRotation.z
      value: -0.7071067
      objectReference: {fileID: 0}
    - target: {fileID: 4000010426880202, guid: 04d464c74059d654db935e748cab1c29, type: 2}
      propertyPath: m_LocalRotation.w
      value: 0.000000030908605
      objectReference: {fileID: 0}
    - target: {fileID: 4000010426880202, guid: 04d464c74059d654db935e748cab1c29, type: 2}
      propertyPath: m_RootOrder
      value: 0
      objectReference: {fileID: 0}
    - target: {fileID: 4000010426880202, guid: 04d464c74059d654db935e748cab1c29, type: 2}
      propertyPath: m_LocalScale.y
      value: 1.1499995
      objectReference: {fileID: 0}
    - target: {fileID: 4000010426880202, guid: 04d464c74059d654db935e748cab1c29, type: 2}
      propertyPath: m_LocalScale.z
      value: 1.1499993
      objectReference: {fileID: 0}
    m_RemovedComponents: []
  m_SourcePrefab: {fileID: 100100000, guid: 04d464c74059d654db935e748cab1c29, type: 2}
  m_RootGameObject: {fileID: 567419135}
  m_IsPrefabAsset: 0
--- !u!1 &1908790515
GameObject:
  m_ObjectHideFlags: 0
  m_CorrespondingSourceObject: {fileID: 0}
  m_PrefabInternal: {fileID: 0}
  serializedVersion: 6
  m_Component:
  - component: {fileID: 1908790520}
  - component: {fileID: 1908790519}
  - component: {fileID: 1908790518}
  - component: {fileID: 1908790517}
  - component: {fileID: 1908790516}
  m_Layer: 0
  m_Name: Main Camera
  m_TagString: MainCamera
  m_Icon: {fileID: 0}
  m_NavMeshLayer: 0
  m_StaticEditorFlags: 0
  m_IsActive: 1
--- !u!81 &1908790516
AudioListener:
  m_ObjectHideFlags: 0
  m_CorrespondingSourceObject: {fileID: 0}
  m_PrefabInternal: {fileID: 0}
  m_GameObject: {fileID: 1908790515}
  m_Enabled: 1
--- !u!124 &1908790517
Behaviour:
  m_ObjectHideFlags: 0
  m_CorrespondingSourceObject: {fileID: 0}
  m_PrefabInternal: {fileID: 0}
  m_GameObject: {fileID: 1908790515}
  m_Enabled: 1
--- !u!92 &1908790518
Behaviour:
  m_ObjectHideFlags: 0
  m_CorrespondingSourceObject: {fileID: 0}
  m_PrefabInternal: {fileID: 0}
  m_GameObject: {fileID: 1908790515}
  m_Enabled: 1
--- !u!20 &1908790519
Camera:
  m_ObjectHideFlags: 0
  m_CorrespondingSourceObject: {fileID: 0}
  m_PrefabInternal: {fileID: 0}
  m_GameObject: {fileID: 1908790515}
  m_Enabled: 1
  serializedVersion: 2
  m_ClearFlags: 2
  m_BackGroundColor: {r: 0.5027861, g: 0.47215617, b: 0.52205884, a: 0}
  m_projectionMatrixMode: 1
  m_SensorSize: {x: 36, y: 24}
  m_LensShift: {x: 0, y: 0}
  m_FocalLength: 50
  m_NormalizedViewPortRect:
    serializedVersion: 2
    x: 0
    y: 0
    width: 1
    height: 1
  near clip plane: 0.3
  far clip plane: 1000
  field of view: 60
  orthographic: 0
  orthographic size: 5
  m_Depth: -1
  m_CullingMask:
    serializedVersion: 2
    m_Bits: 4294967295
  m_RenderingPath: -1
  m_TargetTexture: {fileID: 0}
  m_TargetDisplay: 0
  m_TargetEye: 3
  m_HDR: 0
  m_AllowMSAA: 1
  m_AllowDynamicResolution: 0
  m_ForceIntoRT: 0
  m_OcclusionCulling: 1
  m_StereoConvergence: 10
  m_StereoSeparation: 0.022
--- !u!4 &1908790520
Transform:
  m_ObjectHideFlags: 0
  m_CorrespondingSourceObject: {fileID: 0}
  m_PrefabInternal: {fileID: 0}
  m_GameObject: {fileID: 1908790515}
  m_LocalRotation: {x: 0, y: 0, z: 0, w: 1}
  m_LocalPosition: {x: 0.28, y: -0.008, z: -1.461}
  m_LocalScale: {x: 1, y: 1, z: 1}
  m_Children: []
  m_Father: {fileID: 0}
  m_RootOrder: 0
  m_LocalEulerAnglesHint: {x: 0, y: 0, z: 0}
