%YAML 1.1
%TAG !u! tag:unity3d.com,2011:
--- !u!1045 &1
EditorBuildSettings:
  m_ObjectHideFlags: 0
  serializedVersion: 2
  m_Scenes:
  - enabled: 1
    path: Assets/Scenes/GameOver.unity
    guid: 8bcf1477125612c43abb3a5f36831bf0
  - enabled: 1
    path: Assets/Scenes/Battle.unity
    guid: 09381a3fb8cc1c04a89015261ec68551
  - enabled: 1
    path: Assets/Scenes/StartMenu.unity
    guid: e249614ac07f82347ad8b9dd4cf013ca
  - enabled: 1
    path: Assets/Scenes/Intro.unity
    guid: 01671c1575d476d4ea9f5977367593fe
  - enabled: 1
    path: Assets/Scenes/Town.unity
    guid: ce353d04beed1f8448cae9b5923b773e
  - enabled: 1
    path: Assets/Scenes/Move.unity
    guid: 17b68abb612580d448085d157a7bb685
  - enabled: 1
    path: Assets/Scenes/Environment.unity
    guid: e3b858b98fba3fa4c8959d874d07c596
  m_configObjects: {}
